…
## [[1]]
## # A tibble: 6 x 5
##   season_num episode_num                                   episode_title
##        <dbl>       <dbl>                                           <chr>
## 1          9          15                        The One With The Mugging
## 2          1          14                   The One With The Candy Hearts
## 3          7          12              The One Where They're Up All Night
## 4         10          17                                    The Last One
## 5          9          23                             The One In Barbados
## 6          4          23 The One With Ross's Wedding - The Uncut Version
## # ... with 2 more variables: n <int>, pct_rnk <dbl>
## 
## [[2]]
## # A tibble: 44 x 3
##    speaker nchar_speaker     pct_rnk
##      <chr>         <int>       <dbl>
##  1      PA             2 0.000000000
##  2      TV             2 0.000000000
##  3     All             3 0.002503129
##  4     Kid             3 0.002503129
##  5     Bob             3 0.002503129
##  6     Guy             3 0.002503129
##  7     Max             3 0.002503129
##  8     Man             3 0.002503129
##  9     ALL             3 0.002503129
## 10     ROB             3 0.002503129
## # ... with 34 more rows
…
## [[1]]
## # A tibble: 6 x 5
##   season_num episode_num                                   episode_title
##        <dbl>       <dbl>                                           <chr>
## 1          1          14                   The One With The Candy Hearts
## 2          1           8                   The One Where Nana Dies Twice
## 3          7          12              The One Where They're Up All Night
## 4         10          17                                    The Last One
## 5          9          23                             The One In Barbados
## 6          4          23 The One With Ross's Wedding - The Uncut Version
## # ... with 2 more variables: n <int>, pct_rnk <dbl>
## 
## [[2]]
## # A tibble: 41 x 3
##    speaker nchar_speaker     pct_rnk
##      <chr>         <int>       <dbl>
##  1      Pa             2 0.000000000
##  2      Tv             2 0.000000000
##  3     All             3 0.001939864
##  4     Kid             3 0.001939864
##  5     Bob             3 0.001939864
##  6     Guy             3 0.001939864
##  7     Max             3 0.001939864
##  8     Man             3 0.001939864
##  9     Rob             3 0.001939864
## 10     Roy             3 0.001939864
## # ... with 31 more rows
…
